{
    "type": "productCategorySearchPageWsDTO",
    "breadcrumbs": [
        {
            "facetCode": "allCategories",
            "facetName": "allCategories",
            "facetValueCode": "100304",
            "facetValueName": "100304",
            "removeQuery": {
                "query": {
                    "value": ":popularity-desc:inStockFlag:true"
                },
                "url": "/search?q=%3Apopularity-desc%3AinStockFlag%3Atrue"
            },
            "truncateQuery": {
                "query": {
                    "value": ":popularity-desc:allCategories:100304"
                },
                "url": "/search?q=%3Apopularity-desc%3AallCategories%3A100304"
            }
        },
        {
            "facetCode": "inStockFlag",
            "facetName": "Na stanju",
            "facetValueCode": "true",
            "facetValueName": "Da",
            "removeQuery": {
                "query": {
                    "value": ":popularity-desc:allCategories:100304"
                },
                "url": "/search?q=%3Apopularity-desc%3AallCategories%3A100304"
            }
        }
    ],
    "currentQuery": {
        "query": {
            "value": ":popularity-desc:allCategories:100304:inStockFlag:true"
        },
        "url": "/search?q=%3Apopularity-desc%3AallCategories%3A100304%3AinStockFlag%3Atrue"
    },
    "facets": [
        {
            "category": false,
            "code": "brand",
            "multiSelect": true,
            "name": "Marka",
            "priority": 2147483647,
            "range": false,
            "type": "string",
            "values": [
                {
                    "count": 28,
                    "name": "HP",
                    "query": {
                        "query": {
                            "value": ":popularity-desc:allCategories:100304:inStockFlag:true:brand:524"
                        },
                        "url": "/search?q=%3Apopularity-desc%3AallCategories%3A100304%3AinStockFlag%3Atrue%3Abrand%3A524"
                    },
                    "selected": false
                },
                {
                    "count": 27,
                    "name": "LENOVO",
                    "query": {
                        "query": {
                            "value": ":popularity-desc:allCategories:100304:inStockFlag:true:brand:649"
                        },
                        "url": "/search?q=%3Apopularity-desc%3AallCategories%3A100304%3AinStockFlag%3Atrue%3Abrand%3A649"
                    },
                    "selected": false
                },
                {
                    "count": 11,
                    "name": "ACER",
                    "query": {
                        "query": {
                            "value": ":popularity-desc:allCategories:100304:inStockFlag:true:brand:11"
                        },
                        "url": "/search?q=%3Apopularity-desc%3AallCategories%3A100304%3AinStockFlag%3Atrue%3Abrand%3A11"
                    },
                    "selected": false
                },
                {
                    "count": 10,
                    "name": "APPLE",
                    "query": {
                        "query": {
                            "value": ":popularity-desc:allCategories:100304:inStockFlag:true:brand:77"
                        },
                        "url": "/search?q=%3Apopularity-desc%3AallCategories%3A100304%3AinStockFlag%3Atrue%3Abrand%3A77"
                    },
                    "selected": false
                },
                {
                    "count": 6,
                    "name": "HUAWEI",
                    "query": {
                        "query": {
                            "value": ":popularity-desc:allCategories:100304:inStockFlag:true:brand:529"
                        },
                        "url": "/search?q=%3Apopularity-desc%3AallCategories%3A100304%3AinStockFlag%3Atrue%3Abrand%3A529"
                    },
                    "selected": false
                },
                {
                    "count": 3,
                    "name": "Dynabook",
                    "query": {
                        "query": {
                            "value": ":popularity-desc:allCategories:100304:inStockFlag:true:brand:1948"
                        },
                        "url": "/search?q=%3Apopularity-desc%3AallCategories%3A100304%3AinStockFlag%3Atrue%3Abrand%3A1948"
                    },
                    "selected": false
                },
                {
                    "count": 2,
                    "name": "DELL",
                    "query": {
                        "query": {
                            "value": ":popularity-desc:allCategories:100304:inStockFlag:true:brand:282"
                        },
                        "url": "/search?q=%3Apopularity-desc%3AallCategories%3A100304%3AinStockFlag%3Atrue%3Abrand%3A282"
                    },
                    "selected": false
                },
                {
                    "count": 2,
                    "name": "ASUS",
                    "query": {
                        "query": {
                            "value": ":popularity-desc:allCategories:100304:inStockFlag:true:brand:98"
                        },
                        "url": "/search?q=%3Apopularity-desc%3AallCategories%3A100304%3AinStockFlag%3Atrue%3Abrand%3A98"
                    },
                    "selected": false
                },
                {
                    "count": 1,
                    "name": "HONOR",
                    "query": {
                        "query": {
                            "value": ":popularity-desc:allCategories:100304:inStockFlag:true:brand:518"
                        },
                        "url": "/search?q=%3Apopularity-desc%3AallCategories%3A100304%3AinStockFlag%3Atrue%3Abrand%3A518"
                    },
                    "selected": false
                }
            ],
            "visible": true
        },
        {
            "category": true,
            "code": "category",
            "multiSelect": false,
            "name": "Kategorija",
            "priority": 2147483646,
            "range": false,
            "type": "string",
            "values": [
                {
                    "count": 62,
                    "name": "Laptop računari",
                    "query": {
                        "query": {
                            "value": ":popularity-desc:allCategories:100304:inStockFlag:true:category:10030404"
                        },
                        "url": "/search?q=%3Apopularity-desc%3AallCategories%3A100304%3AinStockFlag%3Atrue%3Acategory%3A10030404"
                    },
                    "selected": false
                },
                {
                    "count": 14,
                    "name": "Poslovni laptopovi",
                    "query": {
                        "query": {
                            "value": ":popularity-desc:allCategories:100304:inStockFlag:true:category:10030405"
                        },
                        "url": "/search?q=%3Apopularity-desc%3AallCategories%3A100304%3AinStockFlag%3Atrue%3Acategory%3A10030405"
                    },
                    "selected": false
                },
                {
                    "count": 10,
                    "name": "Apple laptopovi",
                    "query": {
                        "query": {
                            "value": ":popularity-desc:allCategories:100304:inStockFlag:true:category:10030402"
                        },
                        "url": "/search?q=%3Apopularity-desc%3AallCategories%3A100304%3AinStockFlag%3Atrue%3Acategory%3A10030402"
                    },
                    "selected": false
                },
                {
                    "count": 3,
                    "name": "2 u 1 laptopovi",
                    "query": {
                        "query": {
                            "value": ":popularity-desc:allCategories:100304:inStockFlag:true:category:10030401"
                        },
                        "url": "/search?q=%3Apopularity-desc%3AallCategories%3A100304%3AinStockFlag%3Atrue%3Acategory%3A10030401"
                    },
                    "selected": false
                },
                {
                    "count": 1,
                    "name": "Gaming laptopovi",
                    "query": {
                        "query": {
                            "value": ":popularity-desc:allCategories:100304:inStockFlag:true:category:10030403"
                        },
                        "url": "/search?q=%3Apopularity-desc%3AallCategories%3A100304%3AinStockFlag%3Atrue%3Acategory%3A10030403"
                    },
                    "selected": false
                }
            ],
            "visible": true
        },
        {
            "category": false,
            "code": "bestseller",
            "multiSelect": true,
            "name": "Najprodavanije",
            "priority": 2147483644,
            "range": false,
            "type": "boolean",
            "values": [
                {
                    "count": 90,
                    "name": "Ne",
                    "query": {
                        "query": {
                            "value": ":popularity-desc:allCategories:100304:inStockFlag:true:bestseller:false"
                        },
                        "url": "/search?q=%3Apopularity-desc%3AallCategories%3A100304%3AinStockFlag%3Atrue%3Abestseller%3Afalse"
                    },
                    "selected": false
                }
            ],
            "visible": true
        },
        {
            "category": false,
            "code": "outlet",
            "multiSelect": true,
            "name": "Outlet",
            "priority": 2147483643,
            "range": false,
            "type": "boolean",
            "values": [
                {
                    "count": 90,
                    "name": "Ne",
                    "query": {
                        "query": {
                            "value": ":popularity-desc:allCategories:100304:inStockFlag:true:outlet:false"
                        },
                        "url": "/search?q=%3Apopularity-desc%3AallCategories%3A100304%3AinStockFlag%3Atrue%3Aoutlet%3Afalse"
                    },
                    "selected": false
                }
            ],
            "visible": true
        },
        {
            "category": false,
            "code": "promotionService",
            "multiSelect": true,
            "name": "Promocija",
            "priority": 2147481771,
            "range": false,
            "type": "string",
            "values": [
                {
                    "count": 69,
                    "name": "Laptopovi i gedžeti",
                    "query": {
                        "query": {
                            "value": ":popularity-desc:allCategories:100304:inStockFlag:true:promotionService:1000000000002366668"
                        },
                        "url": "/search?q=%3Apopularity-desc%3AallCategories%3A100304%3AinStockFlag%3Atrue%3ApromotionService%3A1000000000002366668"
                    },
                    "selected": false
                },
                {
                    "count": 7,
                    "name": "Asortimanski katalog - februar",
                    "query": {
                        "query": {
                            "value": ":popularity-desc:allCategories:100304:inStockFlag:true:promotionService:1000000000002364992"
                        },
                        "url": "/search?q=%3Apopularity-desc%3AallCategories%3A100304%3AinStockFlag%3Atrue%3ApromotionService%3A1000000000002364992"
                    },
                    "selected": false
                }
            ],
            "visible": true
        },
        {
            "category": false,
            "code": "inStockFlag",
            "multiSelect": true,
            "name": "Na stanju",
            "priority": 2147481770,
            "range": false,
            "type": "boolean",
            "values": [
                {
                    "count": 90,
                    "name": "Da",
                    "query": {
                        "query": {
                            "value": ":popularity-desc:allCategories:100304"
                        },
                        "url": "/search?q=%3Apopularity-desc%3AallCategories%3A100304"
                    },
                    "selected": true
                },
                {
                    "count": 968,
                    "name": "Ne",
                    "query": {
                        "query": {
                            "value": ":popularity-desc:allCategories:100304:inStockFlag:true:inStockFlag:false"
                        },
                        "url": "/search?q=%3Apopularity-desc%3AallCategories%3A100304%3AinStockFlag%3Atrue%3AinStockFlag%3Afalse"
                    },
                    "selected": false
                }
            ],
            "visible": true
        }
    ],
    "freeTextSearch": "",
    "maxPrice": 253490.0,
    "minPrice": 33999.0,
    "pagination": {
        "currentPage": 8,
        "pageSize": 12,
        "sort": "popularity-desc",
        "totalPages": 8,
        "totalResults": 90
    },
    "products": [],
    "searchCategories": [
        {
            "categoryCode": "1003",
            "categoryName": "Kompjuteri, hardware i kancelarijska oprema",
            "categoryUrl": "/c/kompjuteri-hardware-i-kancelarijska-oprema-1003",
            "description": "<h1>IT Shop</h1>\n"
        },
        {
            "bottomDescription": "<p>Želite da kupite laptop po najpovoljnijoj ceni u gradu? U Tehnomaniji vam je na raspolaganju&nbsp;uvek sjajna ponuda laptopova na akciji.</p>\n\n<p>Na sajtu Tehnomanije možete naći i najnovije modele laptopova renomiranih brendova: Apple, HP, Acer, Dell, Lenovo, Asus.</p>\n\n<p>Laptop nije samo računar - to je va&scaron; zabavni centar, dru&scaron;tvena mreža i radni prostor. Ako ne znate kakav laptop želite, a znate tačno kakvu specifikaciju želite ili se nalazite negde između, mi vam možemo pomoći da odaberete onaj pravi.</p>\n\n<p>&Scaron;irok izbor na na&scaron;em sajtu nudi različite modele renomiranih proizvođača kao i različite cene laptopova. Va&scaron; zadatak je samo da izaberete onaj pravi koji će biti vrhunskog kvaliteta, raznovrsnih performansi i izuzetnih karakteristika.</p>\n\n<p>Odaberite raspon cena laptopova koji odgovara va&scaron;em budžetu, izaberite svoj model.</p>\n\n<p>Pitate se da li možete kupiti laptop na rate. Na&scaron; odgovor će vam se sigurno dopasti. Kupovina laptopa na rate je moguća i to bez kamate.</p>\n",
            "categoryCode": "100304",
            "categoryName": "Laptopovi",
            "categoryUrl": "/c/kompjuteri-hardware-i-kancelarijska-oprema/laptopovi-100304",
            "description": "<h1>Laptopovi</h1>\n"
        }
    ],
    "sorts": [
        {
            "code": "popularity-desc",
            "name": "Popularnosti",
            "selected": true
        },
        {
            "code": "price-desc",
            "name": "Ceni opadajuće",
            "selected": false
        },
        {
            "code": "price-asc",
            "name": "Ceni rastuće",
            "selected": false
        },
        {
            "code": "rating-desc",
            "name": "Oceni",
            "selected": false
        }
    ],
    "suggestedCategories": []
}